{
  "version": "0.0.0",
  "api": "/",
  "order": [
    { "type": "header", "id": 1 },
    { "type": "about", "id": 1 },
    { "type": "gallery", "id": 1 },
    { "type": "apartments", "id": 1 },
    { "type": "details", "id": 1 },
    { "type": "benefits", "id": 1 },
    { "type": "facilities", "id": 1 },
    { "type": "location", "id": 1 },
    { "type": "contacts", "id": 1 },
    { "type": "footer", "id": 1 }
  ],
  "sections": [
    {
      "type": "apartments",
      "id": 1,
      "items": [
        {
          "id": 0,
          "type": "price",
          "floor": 6,
          "rooms": 2,
          "bathrooms": 2,
          "housing": "1/2",
          "area": 82,
          "price": {
            "rub": 30000000,
            "dol": 400650,
            "eur": 331639
          },
          "images": [1, 2, 3],
          "centeredImages": [3]
        },
        {
          "id": 1,
          "type": "rent",
          "floor": 3,
          "rooms": 1,
          "bathrooms": 2,
          "housing": "2/2",
          "area": 50,
          "rent": 350000,
          "price": {
            "rub": 350000,
            "dol": 4672,
            "eur": 3869
          },
          "images": [1, 2],
          "centeredImages": [2]
        },
        {
          "id": 2,
          "type": "sold",
          "floor": 6,
          "rooms": 2,
          "bathrooms": 2,
          "housing": "1/2",
          "area": 82,
          "images": [1, 2],
          "centeredImages": [2]
        },
        {
          "id": 0,
          "type": "price",
          "floor": 6,
          "rooms": 6,
          "bathrooms": 2,
          "housing": "1/2",
          "area": 82,
          "price": {
            "rub": 17753000,
            "dol": 237091,
            "eur": 196253
          },
          "images": [1, 2, 3],
          "centeredImages": [3]
        },
        {
          "id": 2,
          "type": "sold",
          "floor": 6,
          "rooms": 2,
          "bathrooms": 2,
          "housing": "1/2",
          "area": 82,
          "images": [1, 2],
          "centeredImages": [2]
        },
        {
          "id": 1,
          "type": "rent",
          "floor": 3,
          "rooms": 1,
          "bathrooms": 6,
          "housing": "2/2",
          "area": 50,
          "rent": 700000,
          "price": {
            "rub": 700000,
            "dol": 9348,
            "eur": 7738
          },
          "images": [1, 2],
          "centeredImages": [2]
        }
      ]
    },
    {
      "type": "facilities",
      "id": 1,
      "title": "Удобства",
      "itemsMini": [
        {
          "title": "Вентиляция и кондиционирование",
          "icon": "wind",
          "color": "#0085b2"
        },
        { "title": "Очистка воздуха", "icon": "o2", "color": "#167c80" },
        {
          "title": "Система безопасности",
          "icon": "shield-chekmark",
          "color": "#e60100"
        },
        {
          "title": "Телекомуникации",
          "icon": "space-dish-science",
          "color": "#ffed54"
        },
        {
          "title": "Служба ресепшен",
          "icon": "house-chat-message",
          "color": "#0085B2"
        }
      ],
      "finalItemMini": {
        "title": "Все удобства",
        "icon": "grid",
        "color": "#ffed54"
      },
      "itemsPopup": [
        {
          "title": "Вентиляция и кондиционирование",
          "text": "Приточно-вытяжная вентиляция. Мультизональная система центрального кондиционирования типа VRF.",
          "icon": "wind",
          "color": "#0085B2"
        },
        {
          "title": "Очистка воздуха",
          "text": "Обеспечение чистого воздуха в квартирах фильтрами грубой и тонкой очистки.",
          "icon": "o2",
          "color": "#167C80"
        },
        {
          "title": "Система диспетчеризации",
          "text": "Диспетчеризация основных систем здания.",
          "icon": "shield-chekmark-yellow",
          "color": "#FFED54"
        },
        {
          "title": "Телекомуникации",
          "text": "Высокоскоростной интернет, телефонные линии, телевидение.",
          "icon": "swimming-pool",
          "color": "#E60100"
        },
        {
          "title": "Отопление",
          "text": "Автоматическое регулирование температуры приборов от температурных датчиков.",
          "icon": "settings",
          "color": "#0085B2"
        },
        {
          "title": "Водоснабжение",
          "text": " Многоуровневая система очистки воды.",
          "icon": "wind-blue-dark",
          "color": "#167C80"
        },
        {
          "title": "Электроснабжение",
          "text": "Приточно-вытяжная вентиляция. Мультизональная система центрального кондиционирования типа VRF.",
          "icon": "grid-red",
          "color": "#E60100"
        },
        {
          "title": "Вентиляция и кондиционирование",
          "text": "Выделенная мощность 16 – 30 кВт (в зависимости от квартиры).",
          "icon": "books",
          "color": "#FFED54"
        },
        {
          "title": "Лифты",
          "text": "Высокоскоростные бесшумные лифты.",
          "icon": "wind",
          "color": "#0085B2"
        },
        {
          "title": "Окна",
          "text": "Высококачественные стеклопакеты с алюминиевыми рамами.",
          "icon": "wind",
          "color": "#0085B2"
        },
        {
          "title": "Система безопасности",
          "text": "Система контроля и управления доступом. Видеонаблюдение.",
          "icon": "wind",
          "color": "#252838"
        },
        {
          "title": "Сервис",
          "text": "ВентиляцициоСлужба ресепшен. Техническая служба эксплуатации и обслуживания здания.нирование",
          "icon": "wind",
          "color": "#0085B2"
        }
      ]
    },
    {
      "type": "facilities",
      "id": 2,
      "title": "Удобства 2",
      "itemsMini": [
        {
          "title": "2 Вентиляция и кондиционирование",
          "icon": "wind",
          "color": "#0085b2"
        },
        { "title": "2 Очистка воздуха", "icon": "o2", "color": "#167c80" },
        {
          "title": "2 Система безопасности",
          "icon": "shield-chekmark",
          "color": "#e60100"
        },
        {
          "title": "2 Телекомуникации",
          "icon": "space-dish-science",
          "color": "#ffed54"
        },
        {
          "title": "2 Служба ресепшен",
          "icon": "house-chat-message",
          "color": "#0085B2"
        }
      ],
      "finalItemMini": {
        "title": "2 Все удобства",
        "icon": "grid",
        "color": "#ffed54"
      },
      "itemsPopup": [
        {
          "title": "2 Вентиляция и кондиционирование",
          "text": "Приточно-вытяжная вентиляция. Мультизональная система центрального кондиционирования типа VRF.",
          "icon": "wind",
          "color": "#0085b2"
        },
        {
          "title": "2 Очистка воздуха",
          "text": "2 Обеспечение чистого воздуха в квартирах фильтрами грубой и тонкой очистки.",
          "icon": "o2",
          "color": "#0085b2"
        },
        {
          "title": "2 Система диспетчеризации",
          "text": "Диспетчеризация основных систем здания.",
          "icon": "shield-chekmark-yellow",
          "color": "#0085b2"
        },
        {
          "title": "2 Телекомуникации",
          "text": "Высокоскоростной интернет, телефонные линии, телевидение.",
          "icon": "swimming-pool",
          "color": "#0085b2"
        },
        {
          "title": "2 Отопление",
          "text": "Автоматическое регулирование температуры приборов от температурных датчиков.",
          "icon": "settings",
          "color": "#0085b2"
        },
        {
          "title": "2 Водоснабжение",
          "text": " Многоуровневая система очистки воды.",
          "icon": "wind-blue-dark",
          "color": "#0085b2"
        },
        {
          "title": "2 Электроснабжение",
          "text": "Приточно-вытяжная вентиляция. Мультизональная система центрального кондиционирования типа VRF.",
          "icon": "grid-red",
          "color": "#0085b2"
        },
        {
          "title": "2 Вентиляция и кондиционирование",
          "text": "Выделенная мощность 16 – 30 кВт (в зависимости от квартиры).",
          "icon": "books",
          "color": "#0085b2"
        },
        {
          "title": "2 Лифты",
          "text": "Высокоскоростные бесшумные лифты.",
          "icon": "wind",
          "color": "#0085b2"
        },
        {
          "title": "2 Окна",
          "text": "Высококачественные стеклопакеты с алюминиевыми рамами.",
          "icon": "wind",
          "color": "#0085b2"
        },
        {
          "title": "2 Система безопасности",
          "text": "Система контроля и управления доступом. Видеонаблюдение.",
          "icon": "wind",
          "color": "#0085b2"
        },
        {
          "title": "2 Сервис",
          "text": "ВентиляцициоСлужба ресепшен. Техническая служба эксплуатации и обслуживания здания.нирование",
          "icon": "wind",
          "color": "#0085b2"
        }
      ]
    },
    {
      "type": "gallery",
      "id": 1,
      "masonry": {
        "items": [
          { "id": 1, "text": "Терасса и бассейн\nна крыше", "image": 1 },
          { "id": 2, "text": "Дизайн лежаков\nот Карима Рашида", "image": 2 },
          { "id": 3, "text": "Дизайн лежаков\nот Карима Рашида", "image": 3 },
          { "id": 4, "text": "Цетр города", "image": 4 },
          { "id": 5, "text": "Дизайн лежаков\nот Карима Рашида", "image": 5 },
          { "id": 6, "text": "Терасса и бассейн\nна крыше", "image": 6 },
          { "id": 7, "text": "Дизайн лежаков\nот Карима Рашида", "image": 7 },
          { "id": 8, "text": "Вид сверху", "image": 8 }
        ]
      },
      "popupGallery": {
        "items": [1, 2, 3, 4, 5, 6, 7, 8],
        "centeredImages": [1, 2, 4, 5, 6, 7, 8]
      }
    },
    { "type": "location", "id": 1, "coordinates": [55.766785, 37.555786] },
    {
      "type": "header",
      "id": 1,
      "backgroundColor": "#252838",
      "phone": "+7 912 123-45-67",
      "runningText": ["скидка 2% до 1 марта", "Ипотека 8%"],
      "slides": [
        {
          "id": 0,
          "image": "1",
          "border": null,
          "block": {
            "title": { "text": "Елисейские Холмы", "italic": ["Холмы"] },
            "text": "Ленинский проспект 28"
          }
        },
        { "id": 1, "image": "2", "border": "all" },
        { "id": 2, "image": "3", "border": null },
        { "id": 3, "image": "4", "border": null },
        { "id": 4, "image": "5", "border": "top" },
        {
          "id": 5,
          "icon": "grid-yellow",
          "buttons": {
            "gallery": { "active": true, "title": "перейти к галерее" },
            "excursion": { "active": true }
          }
        }
      ]
    },
    {
      "type": "about",
      "id": 1,
      "content": {
        "title": { "text": "123123фываыв", "italic": ["премиум-класса"] },
        "text": "Квартал Лаки состоит из двух частей: верхнего и нижнего города, где удачно переплелись жилые и инфраструктурные объекты. Верхний город – это восемь жилых домов, квартиры в которых предлагаются с отделкой. В нижнем городе расположено все самое важное для качественной жизни: фермерские магазины, театр, детский сад, а также художественные студии, школы для изучения иностранных языкови подогреваемый бассейн на крыше.",
        "red_title": "елисейские холмы"
      }
    },
    {
      "type": "details",
      "id": 1,
      "title": {
        "text": "Елисейские холмы\nв деталях",
        "italic": ["в деталях"]
      },
      "text": "Место, где продуманы, учтены и вручную сконструированы тончайшие нюансы, из которых складываются комфорт и счастье.",
      "button": "apartment",
      "items": [
        { "id": 1, "num": "8", "text": "жилых\nдомов" },
        { "id": 2, "num": "13—21", "text": "этажей" },
        { "id": 3, "num": "2,95 м", "text": "высота потолков" },
        { "id": 4, "num": "654", "text": "квартиры\nс отделкой" },
        { "id": 5, "num": "44,6—451 м2", "text": "Площадь квартир" }
      ]
    },
    {
      "type": "footer",
      "id": 1,
      "address": "Москва, 2-я Звенигородская ул. 12 стр. 6",
      "email": "info@lucky-savills.ru",
      "phone": "+7 (495) 032-22-49",
      "documents": [
        { "name": "Документация", "url": "" },
        { "name": "Проектная декларация", "url": "" },
        { "name": "Пример ДДУ", "url": "" },
        { "name": "Обработки персональных данных", "url": "" }
      ]
    },
    {
      "type": "benefits",
      "id": 1,
      "title": { "text": "Преимущества\nпроекта", "italic": ["Преимущества"] },
      "items": [
        { "icon": "pin", "text": "Близость к центру города" },
        { "icon": "swimming pool", "text": "Бассейн на крыше" },
        { "icon": "money", "text": "Доступная цена от 26,8 млн. руб." },
        { "icon": "school", "text": "Школа на территории ЖК" },
        { "icon": "ecology", "text": "5 парков рядом" },
        { "icon": "money", "text": "Доступная цена от 26,8 млн. руб." },
        { "icon": "school", "text": "Школа на территории ЖК" },
        { "icon": "ecology", "text": "5 парков рядом" }
      ]
    },
    {
      "type": "contacts",
      "id": 1,
      "left": {
        "title": "Связаться\nс менеджером",
        "name": "Михаил Гаврильчук",
        "occupation": "Продажа городской недвижимости",
        "phone": "+7 (495) 320-30-81"
      },
      "right": {
        "title": {
          "text": "Если хотите продать\nили снять квартиру",
          "italic": ["продать", "снять"]
        },
        "text": "Место, где продуманы, учтены и вручную сконструированы тончайшие нюансы, из которых складываются комфорт и счастье.",
        "button": { "type": "request1", "text": "Оставить заявку" },
        "phone": "+7 (495) 032-22-49"
      }
    }
  ]
}
