<svg width="48" height="48" viewBox="0 0 48 48" fill="none" xmlns="http://www.w3.org/2000/svg">
<rect x="5.99259" y="5.99268" width="36.015" height="36.015" rx="5" stroke="#167C80" stroke-width="2" stroke-linecap="round" stroke-linejoin="round"/>
<path fill-rule="evenodd" clip-rule="evenodd" d="M19.9985 28.9603H16.9972C15.3397 28.9603 13.996 27.6166 13.996 25.9591V17.2434C13.996 15.5859 15.3397 14.2422 16.9972 14.2422H19.9985C21.656 14.2422 22.9997 15.5859 22.9997 17.2434V25.9591C22.9997 27.6166 21.656 28.9603 19.9985 28.9603V28.9603Z" stroke="#167C80" stroke-width="2" stroke-linecap="round" stroke-linejoin="round"/>
<path d="M28.9462 26.6292C28.9462 25.2203 30.0883 24.0781 31.4972 24.0781C32.9061 24.0781 34.0483 25.2203 34.0483 26.6292C34.0483 29.8145 28.9502 29.8145 28.9502 33.5901H34.0483" stroke="#167C80" stroke-width="2" stroke-linecap="round" stroke-linejoin="round"/>
</svg>
