<svg width="49" height="48" viewBox="0 0 49 48" fill="none" xmlns="http://www.w3.org/2000/svg">
<path d="M31.2598 18.9289C35.189 22.8342 35.189 29.1658 31.2598 33.0711C27.3306 36.9763 20.9601 36.9763 17.0309 33.0711C13.1017 29.1658 13.1017 22.8342 17.0309 18.9289C20.9601 15.0237 27.3306 15.0237 31.2598 18.9289" stroke="#0085B2" stroke-width="2" stroke-linecap="round" stroke-linejoin="round"/>
<path d="M24.1474 26L17.0239 33.08" stroke="#0085B2" stroke-width="2" stroke-linecap="round" stroke-linejoin="round"/>
<path d="M37.6642 12.5657C37.9589 12.8586 37.9589 13.3335 37.6642 13.6264C37.3695 13.9193 36.8918 13.9193 36.5971 13.6264C36.3024 13.3335 36.3024 12.8586 36.5971 12.5657C36.8918 12.2728 37.3695 12.2728 37.6642 12.5657Z" fill="#0085B2"/>
<path d="M37.6642 12.5657C37.9589 12.8586 37.9589 13.3335 37.6642 13.6264C37.3695 13.9193 36.8918 13.9193 36.5971 13.6264C36.3024 13.3335 36.3024 12.8586 36.5971 12.5657C36.8918 12.2728 37.3695 12.2728 37.6642 12.5657" stroke="#0085B2" stroke-width="2" stroke-linecap="round" stroke-linejoin="round"/>
<path d="M11.6979 38.3736C11.9926 38.6665 11.9926 39.1414 11.6979 39.4343C11.4032 39.7272 10.9254 39.7272 10.6308 39.4343C10.3361 39.1414 10.3361 38.6665 10.6308 38.3736C10.9254 38.0807 11.4032 38.0807 11.6979 38.3736Z" fill="#0085B2"/>
<path d="M11.6979 38.3736C11.9926 38.6665 11.9926 39.1414 11.6979 39.4343C11.4032 39.7272 10.9254 39.7272 10.6308 39.4343C10.3361 39.1414 10.3361 38.6665 10.6308 38.3736C10.9254 38.0807 11.4032 38.0807 11.6979 38.3736" stroke="#0085B2" stroke-width="2" stroke-linecap="round" stroke-linejoin="round"/>
<path d="M43.0431 25.4697C43.3378 25.7626 43.3378 26.2374 43.0431 26.5303C42.7484 26.8232 42.2707 26.8232 41.976 26.5303C41.6813 26.2374 41.6813 25.7626 41.976 25.4697C42.2707 25.1768 42.7484 25.1768 43.0431 25.4697Z" fill="#0085B2"/>
<path d="M43.0431 25.4697C43.3378 25.7626 43.3378 26.2374 43.0431 26.5303C42.7484 26.8232 42.2707 26.8232 41.976 26.5303C41.6813 26.2374 41.6813 25.7626 41.976 25.4697C42.2707 25.1768 42.7484 25.1768 43.0431 25.4697" stroke="#0085B2" stroke-width="2" stroke-linecap="round" stroke-linejoin="round"/>
<path d="M6.31902 25.4697C6.61371 25.7626 6.61371 26.2374 6.31902 26.5303C6.02432 26.8232 5.54654 26.8232 5.25185 26.5303C4.95716 26.2374 4.95716 25.7626 5.25185 25.4697C5.54654 25.1768 6.02432 25.1768 6.31902 25.4697Z" fill="#0085B2"/>
<path d="M6.31902 25.4697C6.61371 25.7626 6.61371 26.2374 6.31902 26.5303C6.02432 26.8232 5.54654 26.8232 5.25185 26.5303C4.95716 26.2374 4.95716 25.7626 5.25185 25.4697C5.54654 25.1768 6.02432 25.1768 6.31902 25.4697" stroke="#0085B2" stroke-width="2" stroke-linecap="round" stroke-linejoin="round"/>
<path d="M37.6642 38.3736C37.9589 38.6665 37.9589 39.1414 37.6642 39.4343C37.3695 39.7272 36.8918 39.7272 36.5971 39.4343C36.3024 39.1414 36.3024 38.6665 36.5971 38.3736C36.8918 38.0807 37.3695 38.0807 37.6642 38.3736Z" fill="#0085B2"/>
<path d="M37.6642 38.3736C37.9589 38.6665 37.9589 39.1414 37.6642 39.4343C37.3695 39.7272 36.8918 39.7272 36.5971 39.4343C36.3024 39.1414 36.3024 38.6665 36.5971 38.3736C36.8918 38.0807 37.3695 38.0807 37.6642 38.3736" stroke="#0085B2" stroke-width="2" stroke-linecap="round" stroke-linejoin="round"/>
<path d="M11.6979 12.5657C11.9926 12.8586 11.9926 13.3335 11.6979 13.6264C11.4032 13.9193 10.9254 13.9193 10.6308 13.6264C10.3361 13.3335 10.3361 12.8586 10.6308 12.5657C10.9254 12.2728 11.4032 12.2728 11.6979 12.5657Z" fill="#0085B2"/>
<path d="M11.6979 12.5657C11.9926 12.8586 11.9926 13.3335 11.6979 13.6264C11.4032 13.9193 10.9254 13.9193 10.6308 13.6264C10.3361 13.3335 10.3361 12.8586 10.6308 12.5657C10.9254 12.2728 11.4032 12.2728 11.6979 12.5657" stroke="#0085B2" stroke-width="2" stroke-linecap="round" stroke-linejoin="round"/>
<path d="M24.6808 7.21967C24.9755 7.51256 24.9755 7.98744 24.6808 8.28033C24.3861 8.57322 23.9084 8.57322 23.6137 8.28033C23.319 7.98744 23.319 7.51256 23.6137 7.21967C23.9084 6.92678 24.3861 6.92678 24.6808 7.21967Z" fill="#0085B2"/>
<path d="M24.6808 7.21967C24.9755 7.51256 24.9755 7.98744 24.6808 8.28033C24.3861 8.57322 23.9084 8.57322 23.6137 8.28033C23.319 7.98744 23.319 7.51256 23.6137 7.21967C23.9084 6.92678 24.3861 6.92678 24.6808 7.21967" stroke="#0085B2" stroke-width="2" stroke-linecap="round" stroke-linejoin="round"/>
</svg>
