<svg width="49" height="48" viewBox="0 0 49 48" fill="none" xmlns="http://www.w3.org/2000/svg">
<path d="M10.0615 22H20.2456C21.791 22 23.3365 21.414 24.5136 20.242C26.872 17.898 26.872 14.1 24.5136 11.756C22.1553 9.41205 18.334 9.41205 15.9756 11.756" stroke="#167C80" stroke-width="2" stroke-linecap="round" stroke-linejoin="round"/>
<path d="M6.03662 30H23.4729C24.7608 30 26.0486 30.488 27.0306 31.464C28.9946 33.416 28.9946 36.582 27.0306 38.536C25.0667 40.49 21.8812 40.488 19.9152 38.536" stroke="#167C80" stroke-width="2" stroke-linecap="round" stroke-linejoin="round"/>
<path d="M30.1841 25.9999H37.543C38.7503 25.9999 39.9557 25.5419 40.8773 24.6279C42.7185 22.7979 42.7185 19.8299 40.8773 17.9999C39.0361 16.1699 36.0499 16.1699 34.2086 17.9999" stroke="#167C80" stroke-width="2" stroke-linecap="round" stroke-linejoin="round"/>
<path d="M38.2332 40V36" stroke="#167C80" stroke-width="2" stroke-linecap="round" stroke-linejoin="round"/>
<path d="M36.2207 38H40.2452" stroke="#167C80" stroke-width="2" stroke-linecap="round" stroke-linejoin="round"/>
<path d="M32.1961 10V6" stroke="#167C80" stroke-width="2" stroke-linecap="round" stroke-linejoin="round"/>
<path d="M30.1841 8H34.2086" stroke="#167C80" stroke-width="2" stroke-linecap="round" stroke-linejoin="round"/>
</svg>
